\relax 
\providecommand\hyper@newdestlabel[2]{}
\providecommand\HyperFirstAtBeginDocument{\AtBeginDocument}
\HyperFirstAtBeginDocument{\ifx\hyper@anchor\@undefined
\global\let\oldcontentsline\contentsline
\gdef\contentsline#1#2#3#4{\oldcontentsline{#1}{#2}{#3}}
\global\let\oldnewlabel\newlabel
\gdef\newlabel#1#2{\newlabelxx{#1}#2}
\gdef\newlabelxx#1#2#3#4#5#6{\oldnewlabel{#1}{{#2}{#3}}}
\AtEndDocument{\ifx\hyper@anchor\@undefined
\let\contentsline\oldcontentsline
\let\newlabel\oldnewlabel
\fi}
\fi}
\global\let\hyper@last\relax 
\gdef\HyperFirstAtBeginDocument#1{#1}
\providecommand\HyField@AuxAddToFields[1]{}
\providecommand\HyField@AuxAddToCoFields[2]{}
\citation{Lubotzky1988}
\citation{Lubotzky1988}
\citation{Margulis}
\citation{Peter}
\citation{Ajtai}
\citation{Hoory}
\@writefile{toc}{\contentsline {section}{\tocsection {}{1}{Introduction}}{1}{section.1}}
\@writefile{toc}{\contentsline {subsection}{\tocsubsection {}{1.1}{Motivtion}}{1}{subsection.1.1}}
\citation{Lubotzky1988}
\citation{Selinger}
\citation{Lubotzky1988}
\citation{Naser}
\newlabel{Afr}{{1.1}{2}{Motivtion}{equation.1.1}{}}
\newlabel{cc}{{1.1}{2}{}{thm.1.1}{}}
\newlabel{assumptions}{{1.1}{2}{Motivtion}{thm.1.1}{}}
\newlabel{mainthm}{{1.2}{2}{}{thm.1.2}{}}
\newlabel{almostdiam}{{1.2}{2}{}{equation.1.2}{}}
\newlabel{diamb}{{1.3}{2}{}{equation.1.3}{}}
\citation{Naser2}
\citation{Naser}
\citation{Naser2}
\citation{Rivin}
\citation{Naser2}
\citation{Sarnak31}
\citation{Naser2}
\citation{Browning}
\citation{Naser2}
\citation{Petit2008}
\newlabel{decomdiag}{{1.5}{3}{}{thm.1.5}{}}
\newlabel{deter}{{1.4}{3}{}{equation.1.4}{}}
\newlabel{typical}{{1.5}{3}{}{equation.1.5}{}}
\citation{Petit2008}
\citation{Selinger}
\citation{Lubotzky1988}
\citation{Lubotzky1988}
\citation{Lubotzky1988}
\newlabel{remNp}{{1.6}{4}{}{thm.1.6}{}}
\newlabel{reduction}{{1.2}{4}{Reduction to strong approximation on the sphere}{subsection.1.2}{}}
\@writefile{toc}{\contentsline {subsection}{\tocsubsection {}{1.2}{Reduction to strong approximation on the sphere}}{4}{subsection.1.2}}
\newlabel{LPSgen}{{1.6}{4}{Reduction to strong approximation on the sphere}{equation.1.6}{}}
\newlabel{cores}{{1.7}{4}{Reduction to strong approximation on the sphere}{equation.1.7}{}}
\citation{Naser2}
\citation{Sarnak3}
\newlabel{reductionthm}{{1.7}{5}{Due to Lubotzky, Phillips and Sarnak}{thm.1.7}{}}
\newlabel{redd}{{1.8}{5}{Due to Lubotzky, Phillips and Sarnak}{equation.1.8}{}}
\@writefile{toc}{\contentsline {subsection}{\tocsubsection {}{1.3}{Complexity of strong approximation on the sphere}}{5}{subsection.1.3}}
\newlabel{nptheorem}{{1.8}{5}{}{thm.1.8}{}}
\newlabel{cooor}{{1.9}{5}{}{thm.1.9}{}}
\newlabel{deq}{{1.9}{5}{}{equation.1.9}{}}
\newlabel{diagliftt}{{1.10}{6}{}{thm.1.10}{}}
\newlabel{equit}{{1.10}{6}{}{equation.1.10}{}}
\newlabel{Npprem}{{1.11}{6}{}{thm.1.11}{}}
\newlabel{quant}{{1.4}{6}{Quantitative bounds on the size of the output}{subsection.1.4}{}}
\@writefile{toc}{\contentsline {subsection}{\tocsubsection {}{1.4}{Quantitative bounds on the size of the output}}{6}{subsection.1.4}}
\newlabel{correspond}{{1.12}{6}{}{thm.1.12}{}}
\newlabel{bigholes}{{1.11}{6}{}{equation.1.11}{}}
\newlabel{almost}{{1.12}{6}{}{equation.1.12}{}}
\citation{Rabin}
\citation{Schoof}
\citation{Rabin}
\citation{Lenstra}
\citation{Selinger}
\citation{primaty}
\@writefile{toc}{\contentsline {subsection}{\tocsubsection {}{1.5}{Further motivations and techniques}}{7}{subsection.1.5}}
\@writefile{toc}{\contentsline {subsection}{\tocsubsection {}{}{Acknowledgements}}{7}{section*.2}}
\@writefile{toc}{\contentsline {section}{\tocsection {}{2}{NP-Completeness}}{7}{section.2}}
\newlabel{NP}{{2}{7}{NP-Completeness}{section.2}{}}
\newlabel{subsum}{{2.1}{7}{}{equation.2.1}{}}
\newlabel{boundd}{{2.2}{7}{}{equation.2.2}{}}
\citation{Shoup}
\newlabel{ss}{{2.3}{8}{NP-Completeness}{equation.2.3}{}}
\newlabel{frob}{{2.4}{8}{NP-Completeness}{equation.2.4}{}}
\newlabel{a,b}{{2.5}{8}{NP-Completeness}{equation.2.5}{}}
\newlabel{ppp}{{2.6}{8}{NP-Completeness}{equation.2.6}{}}
\newlabel{N}{{2.7}{8}{NP-Completeness}{equation.2.7}{}}
\newlabel{diop}{{2.8}{8}{NP-Completeness}{equation.2.8}{}}
\newlabel{primitive}{{2.4}{9}{}{thm.2.4}{}}
\newlabel{fact}{{2.9}{9}{NP-Completeness}{equation.2.9}{}}
\newlabel{deqq}{{2.10}{9}{NP-Completeness}{equation.2.10}{}}
\newlabel{3eq}{{2.11}{10}{NP-Completeness}{equation.2.11}{}}
\@writefile{toc}{\contentsline {section}{\tocsection {}{3}{Algorithm}}{10}{section.3}}
\newlabel{alg}{{3}{10}{Algorithm}{section.3}{}}
\@writefile{toc}{\contentsline {subsection}{\tocsubsection {}{3.1}{Proof of Theorem\nonbreakingspace \ref  {diagliftt}}}{10}{subsection.3.1}}
\newlabel{main}{{3.1}{10}{Proof of Theorem~\ref {diagliftt}}{equation.3.1}{}}
\newlabel{newconj}{{3.2}{10}{Proof of Theorem~\ref {diagliftt}}{equation.3.2}{}}
\newlabel{conj2}{{3.3}{10}{Proof of Theorem~\ref {diagliftt}}{equation.3.3}{}}
\newlabel{ortho}{{3.4}{11}{Proof of Theorem~\ref {diagliftt}}{equation.3.4}{}}
\newlabel{param}{{3.5}{11}{Proof of Theorem~\ref {diagliftt}}{equation.3.5}{}}
\newlabel{F(x)}{{3.6}{11}{Proof of Theorem~\ref {diagliftt}}{equation.3.6}{}}
\newlabel{boxlem}{{3.1}{11}{}{thm.3.1}{}}
\newlabel{box}{{3.7}{11}{}{equation.3.7}{}}
\citation{Schoof}
\newlabel{lowerbd}{{3.8}{12}{Proof of Theorem~\ref {diagliftt}}{equation.3.8}{}}
\newlabel{line}{{3.2}{12}{}{thm.3.2}{}}
\@writefile{toc}{\contentsline {subsection}{\tocsubsection {}{3.2}{Distance of diagonal vertices from the identity}}{13}{subsection.3.2}}
\newlabel{hbound}{{3.9}{13}{Distance of diagonal vertices from the identity}{equation.3.9}{}}
\newlabel{newdiag}{{3.10}{13}{Distance of diagonal vertices from the identity}{equation.3.10}{}}
\newlabel{Bin}{{3.12}{13}{Distance of diagonal vertices from the identity}{equation.3.12}{}}
\newlabel{area}{{3.13}{13}{Distance of diagonal vertices from the identity}{equation.3.13}{}}
\newlabel{kdef}{{3.14}{14}{Distance of diagonal vertices from the identity}{equation.3.14}{}}
\newlabel{pkin}{{3.15}{14}{Distance of diagonal vertices from the identity}{equation.3.15}{}}
\citation{Petit2008}
\newlabel{u1}{{3.17}{15}{Distance of diagonal vertices from the identity}{equation.3.17}{}}
\newlabel{count}{{3.18}{15}{Distance of diagonal vertices from the identity}{equation.3.18}{}}
\newlabel{diagsection}{{3.3}{15}{Algorithm for the diagonal decomposition}{subsection.3.3}{}}
\@writefile{toc}{\contentsline {subsection}{\tocsubsection {}{3.3}{Algorithm for the diagonal decomposition}}{15}{subsection.3.3}}
\citation{Adlemann}
\citation{Shanks}
\citation{Ellenberg}
\newlabel{Ylem}{{3.4}{16}{}{thm.3.4}{}}
\newlabel{largedev}{{3.5}{17}{Due to Ellenberg, Michel, Venkatesh}{thm.3.5}{}}
\@writefile{toc}{\contentsline {section}{\tocsection {}{4}{Numerical results}}{17}{section.4}}
\newlabel{numericss}{{4}{17}{Numerical results}{section.4}{}}
\@writefile{toc}{\contentsline {subsection}{\tocsubsection {}{4.1}{Diagonal approximation with V-gates}}{17}{subsection.4.1}}
\newlabel{cond}{{4.1}{17}{Diagonal approximation with V-gates}{equation.4.1}{}}
\citation{Naser}
\bibstyle{alpha}
\bibdata{Navigating}
\bibcite{Ajtai}{AKS87}
\bibcite{primaty}{AKS04}
\bibcite{Adlemann}{AMM77}
\bibcite{Browning}{BKS17}
\bibcite{Ellenberg}{EMV13}
\bibcite{Hoory}{HLW06}
\bibcite{Lenstra}{Len83}
\bibcite{Lubotzky1988}{LPS88}
\bibcite{Margulis}{Mar88}
\bibcite{Petit2008}{PLQ08}
\bibcite{Sarnak3}{PS18}
\bibcite{Rabin}{RS85}
\@writefile{toc}{\contentsline {subsection}{\tocsubsection {}{4.2}{Lower bound on the diameter of LPS Ramanujan graphs }}{19}{subsection.4.2}}
\@writefile{toc}{\contentsline {section}{\tocsection {}{}{References}}{19}{section*.3}}
\bibcite{Selinger}{RS16}
\bibcite{Rivin}{RS17}
\bibcite{Peter}{Sar90}
\bibcite{Naser2}{{Sar}15a}
\bibcite{Sarnak31}{Sar15b}
\bibcite{Naser}{Sar18}
\bibcite{Schoof}{Sch85}
\bibcite{Shanks}{Sha73}
\bibcite{Shoup}{Sho92}
\newlabel{tocindent-1}{0pt}
\newlabel{tocindent0}{12.7778pt}
\newlabel{tocindent1}{17.77782pt}
\newlabel{tocindent2}{0pt}
\newlabel{tocindent3}{0pt}
